{"page":1,
 "next_page":2,
 "last_page":27,
 "total":797,
 "search_count":797,
 "people":
  [{"id":177,
    "about":"",
    "emails":[{"id":70, "address":"bar2@example.com", "label":"main", "primary":false}],
    "phones":[{"id":229, "number":"123-456-1234", "label":"none", "primary":true}],
    "websites":[],
    "addresses":[],
    "tags":[],
    "comments":[],
    "cf_records":[],
    "created_at":"2013-07-10T06:11:35-04:00",
    "updated_at":"2015-04-24T10:32:29-04:00",
    "prefix":"",
    "first_name":"",
    "middle_name":"",
    "last_name":"",
    "champion":false,
    "company_affiliations":[{"id":68, "company_id":1063, "company_name":"Master Karate", "primary":true, "job_title":"Master"}]},
   {"id":1048,
    "about":"Created from PPS",
    "emails":[],
    "phones":[],
    "websites":[],
    "addresses":[],
    "tags":[],
    "comments":[],
    "cf_records":[],
    "created_at":"2015-04-02T12:34:43-04:00",
    "updated_at":"2015-04-02T12:34:43-04:00",
    "prefix":null,
    "first_name":"Tomek",
    "middle_name":null,
    "last_name":"",
    "champion":false,
    "company_affiliations":[]},
   {"id":1046,
    "about":"Created from PPS",
    "emails":[],
    "phones":[],
    "websites":[],
    "addresses":[],
    "tags":[],
    "comments":[],
    "cf_records":[],
    "created_at":"2015-04-02T12:33:24-04:00",
    "updated_at":"2015-04-02T12:33:24-04:00",
    "prefix":null,
    "first_name":"Tomek",
    "middle_name":null,
    "last_name":"",
    "champion":false,
    "company_affiliations":[]},
   {"id":1023,
    "about":"Created from PPS",
    "emails":[],
    "phones":[],
    "websites":[],
    "addresses":[],
    "tags":[],
    "comments":[],
    "cf_records":[],
    "created_at":"2015-04-02T12:13:37-04:00",
    "updated_at":"2015-04-02T12:13:37-04:00",
    "prefix":null,
    "first_name":"Tomek",
    "middle_name":null,
    "last_name":"",
    "champion":false,
    "company_affiliations":[]},
   {"id":1030,
    "about":"Created from PPS",
    "emails":[],
    "phones":[],
    "websites":[],
    "addresses":[],
    "tags":[],
    "comments":[],
    "cf_records":[],
    "created_at":"2015-04-02T12:20:12-04:00",
    "updated_at":"2015-04-02T12:20:12-04:00",
    "prefix":null,
    "first_name":"Tomek",
    "middle_name":null,
    "last_name":"",
    "champion":false,
    "company_affiliations":[]},
   {"id":1040,
    "about":"Created from PPS",
    "emails":[],
    "phones":[],
    "websites":[],
    "addresses":[],
    "tags":[],
    "comments":[],
    "cf_records":[],
    "created_at":"2015-04-02T12:25:39-04:00",
    "updated_at":"2015-04-02T12:25:39-04:00",
    "prefix":null,
    "first_name":"Tomek",
    "middle_name":null,
    "last_name":"",
    "champion":false,
    "company_affiliations":[]},
   {"id":1025,
    "about":"Created from PPS",
    "emails":[],
    "phones":[],
    "websites":[],
    "addresses":[],
    "tags":[],
    "comments":[],
    "cf_records":[],
    "created_at":"2015-04-02T12:18:42-04:00",
    "updated_at":"2015-04-02T12:18:42-04:00",
    "prefix":null,
    "first_name":"Tomek",
    "middle_name":null,
    "last_name":"",
    "champion":null,
    "company_affiliations":[]},
   {"id":1036,
    "about":"Created from PPS",
    "emails":[],
    "phones":[],
    "websites":[],
    "addresses":[],
    "tags":[],
    "comments":[],
    "cf_records":[],
    "created_at":"2015-04-02T12:23:03-04:00",
    "updated_at":"2015-04-02T12:23:03-04:00",
    "prefix":null,
    "first_name":"Tomek",
    "middle_name":null,
    "last_name":"",
    "champion":false,
    "company_affiliations":[]},
   {"id":1032,
    "about":"Created from PPS",
    "emails":[],
    "phones":[],
    "websites":[],
    "addresses":[],
    "tags":[],
    "comments":[],
    "cf_records":[],
    "created_at":"2015-04-02T12:20:55-04:00",
    "updated_at":"2015-04-02T12:20:55-04:00",
    "prefix":null,
    "first_name":"Tomek",
    "middle_name":null,
    "last_name":"",
    "champion":null,
    "company_affiliations":[]},
   {"id":1044,
    "about":"Created from PPS",
    "emails":[],
    "phones":[],
    "websites":[],
    "addresses":[],
    "tags":[],
    "comments":[],
    "cf_records":[],
    "created_at":"2015-04-02T12:32:02-04:00",
    "updated_at":"2015-04-02T12:32:02-04:00",
    "prefix":null,
    "first_name":"Tomek",
    "middle_name":null,
    "last_name":"",
    "champion":null,
    "company_affiliations":[]},
   {"id":1027,
    "about":"Created from PPS",
    "emails":[],
    "phones":[],
    "websites":[],
    "addresses":[],
    "tags":[],
    "comments":[],
    "cf_records":[],
    "created_at":"2015-04-02T12:19:10-04:00",
    "updated_at":"2015-04-02T12:19:10-04:00",
    "prefix":null,
    "first_name":"Tomek",
    "middle_name":null,
    "last_name":"",
    "champion":null,
    "company_affiliations":[]},
   {"id":1038,
    "about":"Created from PPS",
    "emails":[],
    "phones":[],
    "websites":[],
    "addresses":[],
    "tags":[],
    "comments":[],
    "cf_records":[],
    "created_at":"2015-04-02T12:24:22-04:00",
    "updated_at":"2015-04-02T12:24:22-04:00",
    "prefix":null,
    "first_name":"Tomek",
    "middle_name":null,
    "last_name":"",
    "champion":false,
    "company_affiliations":[]},
   {"id":1042,
    "about":"Created from PPS",
    "emails":[],
    "phones":[],
    "websites":[],
    "addresses":[],
    "tags":[],
    "comments":[],
    "cf_records":[],
    "created_at":"2015-04-02T12:28:28-04:00",
    "updated_at":"2015-04-02T12:28:28-04:00",
    "prefix":null,
    "first_name":"Tomek",
    "middle_name":null,
    "last_name":"",
    "champion":false,
    "company_affiliations":[]},
   {"id":1034,
    "about":"Created from PPS",
    "emails":[],
    "phones":[],
    "websites":[],
    "addresses":[],
    "tags":[],
    "comments":[],
    "cf_records":[],
    "created_at":"2015-04-02T12:22:40-04:00",
    "updated_at":"2015-04-02T12:22:40-04:00",
    "prefix":null,
    "first_name":"Tomek",
    "middle_name":null,
    "last_name":"",
    "champion":false,
    "company_affiliations":[]},
   {"id":1050,
    "about":"Created from PPS",
    "emails":[{"id":801, "address":"tomek@test.com", "label":"email from csm", "primary":true}],
    "phones":[],
    "websites":[],
    "addresses":[],
    "tags":[],
    "comments":[],
    "cf_records":[],
    "created_at":"2015-04-02T12:36:07-04:00",
    "updated_at":"2015-05-04T18:18:18-04:00",
    "prefix":null,
    "first_name":"Tomek",
    "middle_name":null,
    "last_name":"",
    "champion":false,
    "company_affiliations":
     [{"id":132, "company_id":1130, "company_name":"3077317182092780301", "primary":false, "job_title":null},
      {"id":143, "company_id":1141, "company_name":"3077413584332780274", "primary":false, "job_title":null},
      {"id":168, "company_id":1166, "company_name":"3077737270872780305", "primary":false, "job_title":null},
      {"id":164, "company_id":1162, "company_name":"3077694466212780276", "primary":false, "job_title":null},
      {"id":162, "company_id":1160, "company_name":"3077609765012780280", "primary":false, "job_title":null},
      {"id":150, "company_id":1148, "company_name":"3077470378482780502", "primary":false, "job_title":null},
      {"id":151, "company_id":1149, "company_name":"3077477346692780268", "primary":false, "job_title":null},
      {"id":152, "company_id":1150, "company_name":"3077496051782780301", "primary":false, "job_title":null},
      {"id":169, "company_id":1167, "company_name":"3077746222342780284", "primary":false, "job_title":null},
      {"id":163, "company_id":1161, "company_name":"3077615406312780502", "primary":false, "job_title":null},
      {"id":131, "company_id":1129, "company_name":"3077313910182780509", "primary":false, "job_title":null},
      {"id":145, "company_id":1143, "company_name":"3077433945372780265", "primary":false, "job_title":null},
      {"id":156, "company_id":1154, "company_name":"3077518770952780509", "primary":false, "job_title":null},
      {"id":139, "company_id":1137, "company_name":"3077378918602780292", "primary":false, "job_title":null},
      {"id":138, "company_id":1136, "company_name":"3077373640542780309", "primary":false, "job_title":null},
      {"id":136, "company_id":1134, "company_name":"3077362108652780269", "primary":false, "job_title":null},
      {"id":135, "company_id":1133, "company_name":"3077349905582780270", "primary":false, "job_title":null},
      {"id":133, "company_id":1131, "company_name":"3077321037262780291", "primary":false, "job_title":null},
      {"id":126, "company_id":1124, "company_name":"3077247963342780502", "primary":false, "job_title":null},
      {"id":170, "company_id":1168, "company_name":"3077751069572780508", "primary":false, "job_title":null},
      {"id":159, "company_id":1157, "company_name":"3077550316652780299", "primary":false, "job_title":null},
      {"id":112, "company_id":1110, "company_name":"3029958958532780376", "primary":false, "job_title":null},
      {"id":161, "company_id":1159, "company_name":"3077592110802780305", "primary":false, "job_title":null},
      {"id":154, "company_id":1152, "company_name":"3077508088442780296", "primary":false, "job_title":null},
      {"id":155, "company_id":1153, "company_name":"3077513118162780283", "primary":false, "job_title":null},
      {"id":167, "company_id":1165, "company_name":"3077729621262780697", "primary":false, "job_title":null},
      {"id":147, "company_id":1145, "company_name":"3077445629962780270", "primary":false, "job_title":null},
      {"id":158, "company_id":1156, "company_name":"3077533862662780269", "primary":false, "job_title":null},
      {"id":148, "company_id":1146, "company_name":"3077454440462780293", "primary":false, "job_title":null},
      {"id":171, "company_id":1169, "company_name":"3077756556292780271", "primary":false, "job_title":null},
      {"id":165, "company_id":1163, "company_name":"3077706540192780266", "primary":false, "job_title":null},
      {"id":153, "company_id":1151, "company_name":"3077502121572780275", "primary":false, "job_title":null},
      {"id":149, "company_id":1147, "company_name":"3077461193722780282", "primary":false, "job_title":null},
      {"id":157, "company_id":1155, "company_name":"3077529637812780279", "primary":false, "job_title":null},
      {"id":82, "company_id":1077, "company_name":"3016836452602780107", "primary":false, "job_title":null},
      {"id":166, "company_id":1164, "company_name":"3077718956832780298", "primary":false, "job_title":null},
      {"id":172, "company_id":1170, "company_name":"3077770107732780267", "primary":false, "job_title":null},
      {"id":160, "company_id":1158, "company_name":"3077554166552780695", "primary":false, "job_title":null},
      {"id":76, "company_id":1071, "company_name":"3016519055542780124", "primary":false, "job_title":null},
      {"id":144, "company_id":1142, "company_name":"3077429187382780501", "primary":false, "job_title":null},
      {"id":77, "company_id":1072, "company_name":"3016521313512780118", "primary":false, "job_title":null},
      {"id":173, "company_id":1171, "company_name":"3077789370462780291", "primary":false, "job_title":null},
      {"id":141, "company_id":1139, "company_name":"3077408197702780264", "primary":false, "job_title":null},
      {"id":146, "company_id":1144, "company_name":"3077441291972780302", "primary":false, "job_title":null},
      {"id":142, "company_id":1140, "company_name":"3077409773212780308", "primary":false, "job_title":null},
      {"id":140, "company_id":1138, "company_name":"3077387592192780282", "primary":false, "job_title":null},
      {"id":86, "company_id":1081, "company_name":"3016883370342780124", "primary":false, "job_title":null},
      {"id":91, "company_id":1086, "company_name":"3016946454932780120", "primary":false, "job_title":null},
      {"id":69, "company_id":1064, "company_name":"3015266468582780518", "primary":false, "job_title":null},
      {"id":70, "company_id":1065, "company_name":"3016477671432780128", "primary":false, "job_title":null},
      {"id":111, "company_id":1107, "company_name":"3029709095412780375", "primary":false, "job_title":null},
      {"id":110, "company_id":1106, "company_name":"3029504092702780387", "primary":false, "job_title":null},
      {"id":109, "company_id":1105, "company_name":"3029422197672780033", "primary":false, "job_title":null},
      {"id":108, "company_id":1104, "company_name":"3029340246052780395", "primary":false, "job_title":null},
      {"id":84, "company_id":1079, "company_name":"3016850072182780131", "primary":false, "job_title":null},
      {"id":92, "company_id":1087, "company_name":"3016956782462780124", "primary":false, "job_title":null},
      {"id":83, "company_id":1078, "company_name":"3016844815932780094", "primary":false, "job_title":null},
      {"id":73, "company_id":1068, "company_name":"3016499311482780109", "primary":false, "job_title":null},
      {"id":85, "company_id":1080, "company_name":"3016857486892780128", "primary":false, "job_title":null},
      {"id":93, "company_id":1088, "company_name":"3016965656012780111", "primary":false, "job_title":null},
      {"id":107, "company_id":1103, "company_name":"3021580801912780450", "primary":false, "job_title":null},
      {"id":106, "company_id":1101, "company_name":"3020899969132780975", "primary":false, "job_title":null},
      {"id":94, "company_id":1089, "company_name":"3017017631142780101", "primary":false, "job_title":null},
      {"id":95, "company_id":1090, "company_name":"3017035281892780094", "primary":false, "job_title":null},
      {"id":117, "company_id":1115, "company_name":"3076905626872780287", "primary":false, "job_title":null},
      {"id":124, "company_id":1122, "company_name":"3076968527282780276", "primary":false, "job_title":null},
      {"id":128, "company_id":1126, "company_name":"3077269395392780290", "primary":false, "job_title":null},
      {"id":100, "company_id":1095, "company_name":"3017163349722780100", "primary":false, "job_title":null},
      {"id":122, "company_id":1120, "company_name":"3076937870822780290", "primary":false, "job_title":null},
      {"id":115, "company_id":1113, "company_name":"3076900035942780302", "primary":false, "job_title":null},
      {"id":96, "company_id":1091, "company_name":"3017045898152780139", "primary":false, "job_title":null},
      {"id":129, "company_id":1127, "company_name":"3077297687752780272", "primary":false, "job_title":null},
      {"id":87, "company_id":1082, "company_name":"3016895386622780110", "primary":false, "job_title":null},
      {"id":103, "company_id":1098, "company_name":"3017237545122780126", "primary":false, "job_title":null},
      {"id":71, "company_id":1066, "company_name":"3016489733932780112", "primary":false, "job_title":null},
      {"id":104, "company_id":1099, "company_name":"3017246670642780128", "primary":false, "job_title":null},
      {"id":121, "company_id":1119, "company_name":"3076930605862780305", "primary":false, "job_title":null},
      {"id":125, "company_id":1123, "company_name":"3076980081252780268", "primary":false, "job_title":null},
      {"id":119, "company_id":1117, "company_name":"3076918499912780266", "primary":false, "job_title":null},
      {"id":72, "company_id":1067, "company_name":"3016493107452780097", "primary":false, "job_title":null},
      {"id":130, "company_id":1128, "company_name":"3077310124102780266", "primary":false, "job_title":null},
      {"id":123, "company_id":1121, "company_name":"3076964297762780289", "primary":false, "job_title":null},
      {"id":88, "company_id":1083, "company_name":"3016899202842780105", "primary":false, "job_title":null},
      {"id":97, "company_id":1092, "company_name":"3017098896612780123", "primary":false, "job_title":null},
      {"id":101, "company_id":1096, "company_name":"3017209348842780097", "primary":false, "job_title":null},
      {"id":98, "company_id":1093, "company_name":"3017107073452780125", "primary":false, "job_title":null},
      {"id":116, "company_id":1114, "company_name":"3076902829112780294", "primary":false, "job_title":null},
      {"id":118, "company_id":1116, "company_name":"3076910636342780279", "primary":false, "job_title":null},
      {"id":137, "company_id":1135, "company_name":"3077368079622780501", "primary":false, "job_title":null},
      {"id":120, "company_id":1118, "company_name":"3076922661662780507", "primary":false, "job_title":null},
      {"id":127, "company_id":1125, "company_name":"3077253360392780300", "primary":false, "job_title":null},
      {"id":134, "company_id":1132, "company_name":"3077330443822780280", "primary":false, "job_title":null},
      {"id":74, "company_id":1069, "company_name":"3016501522812780121", "primary":false, "job_title":null},
      {"id":75, "company_id":1070, "company_name":"3016513556752780139", "primary":false, "job_title":null},
      {"id":79, "company_id":1074, "company_name":"3016683461472780103", "primary":false, "job_title":null},
      {"id":66, "company_id":1055, "company_name":"2799291614592730899", "primary":false, "job_title":null},
      {"id":67, "company_id":1056, "company_name":"2799551611362730916", "primary":false, "job_title":null},
      {"id":80, "company_id":1075, "company_name":"3016695354402780121", "primary":false, "job_title":null},
      {"id":81, "company_id":1076, "company_name":"3016708450802780135", "primary":false, "job_title":null},
      {"id":65, "company_id":1053, "company_name":"2799281104102730906", "primary":true, "job_title":null},
      {"id":102, "company_id":1097, "company_name":"3017232250922780132", "primary":false, "job_title":null},
      {"id":89, "company_id":1084, "company_name":"3016913516502780097", "primary":false, "job_title":null},
      {"id":105, "company_id":1100, "company_name":"3020345487182780566", "primary":false, "job_title":null},
      {"id":90, "company_id":1085, "company_name":"3016931368302780130", "primary":false, "job_title":null},
      {"id":99, "company_id":1094, "company_name":"3017151520412780119", "primary":false, "job_title":null},
      {"id":78, "company_id":1073, "company_name":"3016559387462780094", "primary":false, "job_title":null},
      {"id":114, "company_id":1112, "company_name":"3076892645512780508", "primary":false, "job_title":null},
      {"id":113, "company_id":1111, "company_name":"3075803710062780528", "primary":false, "job_title":null}]},
   {"id":650,
    "about":null,
    "emails":[{"id":544, "address":"jonnie@mijndomein.nl", "label":"work", "primary":true}],
    "phones":[],
    "websites":[],
    "addresses":[],
    "tags":[{"id":104, "name":"sometag"}],
    "comments":[],
    "cf_records":[],
    "created_at":"2013-08-01T04:10:43-04:00",
    "updated_at":"2015-01-26T10:00:49-05:00",
    "prefix":null,
    "first_name":"Henk",
    "middle_name":"&quot;PE&quot;",
    "last_name":"Achter",
    "champion":false,
    "company_affiliations":[]},
   {"id":592,
    "about":null,
    "emails":[{"id":486, "address":"jonnie@mijndomein.nl", "label":"work", "primary":true}],
    "phones":[],
    "websites":[],
    "addresses":[],
    "tags":[],
    "comments":[],
    "cf_records":[],
    "created_at":"2013-08-01T03:41:26-04:00",
    "updated_at":"2013-08-01T03:41:26-04:00",
    "prefix":null,
    "first_name":"Henk",
    "middle_name":"&quot;PE&quot;",
    "last_name":"Achternaampie",
    "champion":false,
    "company_affiliations":[]},
   {"id":602,
    "about":null,
    "emails":[{"id":496, "address":"jonnie@mijndomein.nl", "label":"work", "primary":true}],
    "phones":[],
    "websites":[],
    "addresses":[],
    "tags":[],
    "comments":[],
    "cf_records":[],
    "created_at":"2013-08-01T03:42:21-04:00",
    "updated_at":"2013-08-01T03:42:21-04:00",
    "prefix":null,
    "first_name":"Henk",
    "middle_name":"&quot;PE&quot;",
    "last_name":"Achternaampie",
    "champion":false,
    "company_affiliations":[]},
   {"id":608,
    "about":null,
    "emails":[{"id":502, "address":"jonnie@mijndomein.nl", "label":"work", "primary":true}],
    "phones":[],
    "websites":[],
    "addresses":[],
    "tags":[],
    "comments":[],
    "cf_records":[],
    "created_at":"2013-08-01T03:42:52-04:00",
    "updated_at":"2013-08-01T03:42:52-04:00",
    "prefix":null,
    "first_name":"Henk",
    "middle_name":"&quot;PE&quot;",
    "last_name":"Achternaampie",
    "champion":false,
    "company_affiliations":[]},
   {"id":614,
    "about":null,
    "emails":[{"id":508, "address":"jonnie@mijndomein.nl", "label":"work", "primary":true}],
    "phones":[],
    "websites":[],
    "addresses":[],
    "tags":[],
    "comments":[],
    "cf_records":[],
    "created_at":"2013-08-01T03:43:08-04:00",
    "updated_at":"2013-08-01T03:43:08-04:00",
    "prefix":null,
    "first_name":"Henk",
    "middle_name":"&quot;PE&quot;",
    "last_name":"Achternaampie",
    "champion":false,
    "company_affiliations":[]},
   {"id":590,
    "about":null,
    "emails":[{"id":484, "address":"jonnie@mijndomein.nl", "label":"work", "primary":true}],
    "phones":[],
    "websites":[],
    "addresses":[],
    "tags":[],
    "comments":[],
    "cf_records":[],
    "created_at":"2013-08-01T03:41:25-04:00",
    "updated_at":"2013-08-01T03:41:25-04:00",
    "prefix":null,
    "first_name":"Henk",
    "middle_name":"&quot;PE&quot;",
    "last_name":"Achternaampie",
    "champion":false,
    "company_affiliations":[]},
   {"id":591,
    "about":null,
    "emails":[{"id":485, "address":"jonnie@mijndomein.nl", "label":"work", "primary":true}],
    "phones":[],
    "websites":[],
    "addresses":[],
    "tags":[],
    "comments":[],
    "cf_records":[],
    "created_at":"2013-08-01T03:41:26-04:00",
    "updated_at":"2013-08-01T03:41:26-04:00",
    "prefix":null,
    "first_name":"Henk",
    "middle_name":"&quot;PE&quot;",
    "last_name":"Achternaampie",
    "champion":false,
    "company_affiliations":[]},
   {"id":620,
    "about":null,
    "emails":[{"id":514, "address":"jonnie@mijndomein.nl", "label":"work", "primary":true}],
    "phones":[],
    "websites":[],
    "addresses":[],
    "tags":[],
    "comments":[],
    "cf_records":[],
    "created_at":"2013-08-01T03:43:32-04:00",
    "updated_at":"2013-08-01T03:43:32-04:00",
    "prefix":null,
    "first_name":"Henk",
    "middle_name":"&quot;PE&quot;",
    "last_name":"Achternaampie",
    "champion":false,
    "company_affiliations":[]},
   {"id":626,
    "about":null,
    "emails":[{"id":520, "address":"jonnie@mijndomein.nl", "label":"work", "primary":true}],
    "phones":[],
    "websites":[],
    "addresses":[],
    "tags":[],
    "comments":[],
    "cf_records":[],
    "created_at":"2013-08-01T03:43:54-04:00",
    "updated_at":"2013-08-01T03:43:54-04:00",
    "prefix":null,
    "first_name":"Henk",
    "middle_name":"&quot;PE&quot;",
    "last_name":"Achternaampie",
    "champion":false,
    "company_affiliations":[]},
   {"id":656,
    "about":null,
    "emails":[{"id":550, "address":"jonnie@mijndomein.nl", "label":"work", "primary":true}],
    "phones":[],
    "websites":[],
    "addresses":[],
    "tags":[],
    "comments":[],
    "cf_records":[],
    "created_at":"2013-08-01T04:13:43-04:00",
    "updated_at":"2013-08-01T04:13:43-04:00",
    "prefix":null,
    "first_name":"Henk",
    "middle_name":"&quot;PE&quot;",
    "last_name":"Achternaampie",
    "champion":false,
    "company_affiliations":[]},
   {"id":662,
    "about":null,
    "emails":[{"id":556, "address":"jonnie@mijndomein.nl", "label":"work", "primary":true}],
    "phones":[],
    "websites":[],
    "addresses":[],
    "tags":[],
    "comments":[],
    "cf_records":[],
    "created_at":"2013-08-01T04:16:47-04:00",
    "updated_at":"2013-08-01T04:16:47-04:00",
    "prefix":null,
    "first_name":"Henk",
    "middle_name":"&quot;PE&quot;",
    "last_name":"Achternaampie",
    "champion":false,
    "company_affiliations":[]},
   {"id":632,
    "about":null,
    "emails":[{"id":526, "address":"jonnie@mijndomein.nl", "label":"work", "primary":true}],
    "phones":[],
    "websites":[],
    "addresses":[],
    "tags":[],
    "comments":[],
    "cf_records":[],
    "created_at":"2013-08-01T03:44:30-04:00",
    "updated_at":"2013-08-01T03:44:30-04:00",
    "prefix":null,
    "first_name":"Henk",
    "middle_name":"&quot;PE&quot;",
    "last_name":"Achternaampie",
    "champion":false,
    "company_affiliations":[]},
   {"id":638,
    "about":null,
    "emails":[{"id":532, "address":"jonnie@mijndomein.nl", "label":"work", "primary":true}],
    "phones":[],
    "websites":[],
    "addresses":[],
    "tags":[],
    "comments":[],
    "cf_records":[],
    "created_at":"2013-08-01T03:45:08-04:00",
    "updated_at":"2013-08-01T03:45:08-04:00",
    "prefix":null,
    "first_name":"Henk",
    "middle_name":"&quot;PE&quot;",
    "last_name":"Achternaampie",
    "champion":false,
    "company_affiliations":[]},
   {"id":668,
    "about":null,
    "emails":[{"id":562, "address":"jonnie@mijndomein.nl", "label":"work", "primary":true}],
    "phones":[],
    "websites":[],
    "addresses":[],
    "tags":[],
    "comments":[],
    "cf_records":[],
    "created_at":"2013-08-01T04:18:07-04:00",
    "updated_at":"2013-08-01T04:18:07-04:00",
    "prefix":null,
    "first_name":"Henk",
    "middle_name":"&quot;PE&quot;",
    "last_name":"Achternaampie",
    "champion":false,
    "company_affiliations":[]},
   {"id":985,
    "about":null,
    "emails":[{"id":791, "address":"ali@buchikibuchiki.com", "label":"work", "primary":true}],
    "phones":[],
    "websites":[],
    "addresses":[],
    "tags":[{"id":102, "name":"SupportBee"}],
    "comments":[],
    "cf_records":[],
    "created_at":"2014-08-04T05:54:01-04:00",
    "updated_at":"2014-08-04T09:31:02-04:00",
    "prefix":null,
    "first_name":"Ali",
    "middle_name":null,
    "last_name":null,
    "champion":false,
    "company_affiliations":[]}]}
